<svg width="269" height="382" viewBox="0 0 269 382" fill="none" xmlns="http://www.w3.org/2000/svg">
<g filter="url(#filter0_d)">
<rect x="34" y="30" width="201" height="314" rx="6" fill="white"/>
</g>
<path d="M216.696 170.328C206.051 128.467 169.266 98.2489 126.09 97.0369C103.263 96.3961 79.2436 103.967 61.7556 130.458C30.4938 177.815 63.6767 210.54 86.8109 226.091C97.9875 233.619 108.058 242.67 116.732 252.983C132.358 271.527 162.42 294.569 198.222 258.465C224.171 232.297 223.787 198.212 216.696 170.328Z" fill="#F2F2F2"/>
<g opacity="0.3">
<path opacity="0.1" d="M184.052 254.062C184.052 254.062 168.177 214.951 138.518 200.428C126.043 194.422 115.854 184.53 109.483 172.238C106.504 166.38 104.067 160.262 102.204 153.96" stroke="#535461" stroke-width="2" stroke-miterlimit="10"/>
<path opacity="0.1" d="M83.5943 144.7C86.6847 148.584 102.677 154.269 102.677 154.269C102.677 154.269 100.752 137.41 97.6614 133.526C96.1256 131.829 94.0011 130.78 91.7197 130.593C89.4383 130.406 87.1713 131.094 85.3793 132.518C83.5873 133.943 82.4048 135.996 82.0722 138.26C81.7397 140.525 82.2819 142.832 83.5887 144.711L83.5943 144.7Z" fill="#F00480"/>
<path opacity="0.1" d="M89.0827 175.469C93.7887 177.05 110.299 173.116 110.299 173.116C110.299 173.116 99.5191 160.011 94.8131 158.429C92.6007 157.838 90.2461 158.112 88.2283 159.195C86.2105 160.278 84.681 162.089 83.951 164.26C83.221 166.43 83.3453 168.797 84.2986 170.88C85.2519 172.962 86.9626 174.603 89.0827 175.469Z" fill="#F00480"/>
<path opacity="0.1" d="M118.816 211.838C123.679 210.824 135.939 199.099 135.939 199.099C135.939 199.099 120.02 193.228 115.162 194.235C113.944 194.409 112.774 194.831 111.725 195.474C110.676 196.117 109.77 196.968 109.063 197.975C108.356 198.982 107.862 200.124 107.613 201.329C107.364 202.534 107.365 203.777 107.615 204.982C107.865 206.187 108.359 207.328 109.067 208.334C109.775 209.341 110.682 210.191 111.732 210.834C112.781 211.476 113.951 211.897 115.17 212.069C116.388 212.242 117.629 212.163 118.816 211.838Z" fill="#F00480"/>
<path opacity="0.1" d="M147.524 234.281C152.483 234.107 166.551 224.622 166.551 224.622C166.551 224.622 151.853 216.144 146.894 216.319C145.661 216.28 144.434 216.495 143.288 216.95C142.142 217.406 141.102 218.091 140.232 218.965C139.361 219.838 138.68 220.881 138.229 222.029C137.778 223.177 137.568 224.405 137.611 225.637C137.655 226.869 137.95 228.08 138.481 229.193C139.011 230.306 139.764 231.299 140.693 232.109C141.622 232.92 142.708 233.53 143.883 233.904C145.058 234.278 146.297 234.406 147.524 234.281Z" fill="#F00480"/>
<path opacity="0.1" d="M125.666 162.122C125.03 167.047 114.279 180.174 114.279 180.174C114.279 180.174 107.203 164.75 107.839 159.825C108.279 157.581 109.556 155.588 111.411 154.25C113.266 152.913 115.56 152.331 117.828 152.624C120.096 152.916 122.169 154.06 123.624 155.824C125.08 157.588 125.81 159.839 125.666 162.122Z" fill="#F00480"/>
<path opacity="0.1" d="M158.906 188.798C156.829 193.301 142.644 202.617 142.644 202.617C142.644 202.617 140.505 185.786 142.582 181.278C143.022 180.126 143.695 179.077 144.557 178.195C145.42 177.314 146.454 176.619 147.596 176.154C148.738 175.689 149.963 175.463 151.196 175.491C152.429 175.518 153.643 175.799 154.763 176.315C155.883 176.831 156.885 177.571 157.707 178.49C158.529 179.409 159.154 180.487 159.542 181.658C159.931 182.828 160.075 184.066 159.965 185.294C159.856 186.522 159.495 187.715 158.906 188.798Z" fill="#F00480"/>
<path opacity="0.1" d="M187.66 219.162C186.365 223.958 173.981 235.531 173.981 235.531C173.981 235.531 169.033 219.303 170.316 214.507C170.556 213.297 171.042 212.15 171.743 211.135C172.444 210.121 173.346 209.262 174.393 208.61C175.44 207.959 176.61 207.529 177.829 207.349C179.049 207.168 180.293 207.239 181.484 207.558C182.675 207.878 183.788 208.438 184.753 209.205C185.719 209.972 186.516 210.929 187.097 212.017C187.678 213.105 188.029 214.3 188.128 215.529C188.228 216.758 188.074 217.995 187.677 219.162H187.66Z" fill="#F00480"/>
<path opacity="0.25" d="M83.5943 144.7C86.6847 148.584 102.677 154.269 102.677 154.269C102.677 154.269 100.752 137.41 97.6614 133.526C96.1256 131.829 94.0011 130.78 91.7197 130.593C89.4383 130.406 87.1713 131.094 85.3793 132.518C83.5873 133.943 82.4048 135.996 82.0722 138.26C81.7397 140.525 82.2819 142.832 83.5887 144.711L83.5943 144.7Z" fill="black"/>
<path opacity="0.25" d="M89.0827 175.469C93.7887 177.05 110.299 173.116 110.299 173.116C110.299 173.116 99.5191 160.011 94.8131 158.429C92.6007 157.838 90.2461 158.112 88.2283 159.195C86.2105 160.278 84.681 162.089 83.951 164.26C83.221 166.43 83.3453 168.797 84.2986 170.88C85.2519 172.962 86.9626 174.603 89.0827 175.469Z" fill="black"/>
<path opacity="0.25" d="M118.816 211.838C123.679 210.824 135.939 199.099 135.939 199.099C135.939 199.099 120.02 193.228 115.162 194.235C113.944 194.409 112.774 194.831 111.725 195.474C110.676 196.117 109.77 196.968 109.063 197.975C108.356 198.982 107.862 200.124 107.613 201.329C107.364 202.534 107.365 203.777 107.615 204.982C107.865 206.187 108.359 207.328 109.067 208.334C109.775 209.341 110.682 210.191 111.732 210.834C112.781 211.476 113.951 211.897 115.17 212.069C116.388 212.242 117.629 212.163 118.816 211.838Z" fill="black"/>
<path opacity="0.25" d="M147.524 234.281C152.483 234.107 166.551 224.622 166.551 224.622C166.551 224.622 151.853 216.144 146.894 216.319C145.661 216.28 144.434 216.495 143.288 216.95C142.142 217.406 141.102 218.091 140.232 218.965C139.361 219.838 138.68 220.881 138.229 222.029C137.778 223.177 137.568 224.405 137.611 225.637C137.655 226.869 137.95 228.08 138.481 229.193C139.011 230.306 139.764 231.299 140.693 232.109C141.622 232.92 142.708 233.53 143.883 233.904C145.058 234.278 146.297 234.406 147.524 234.281Z" fill="black"/>
<path opacity="0.25" d="M125.666 162.122C125.03 167.047 114.279 180.174 114.279 180.174C114.279 180.174 107.203 164.75 107.839 159.825C108.279 157.581 109.556 155.588 111.411 154.25C113.266 152.913 115.56 152.331 117.828 152.624C120.096 152.916 122.169 154.06 123.624 155.824C125.08 157.588 125.81 159.839 125.666 162.122Z" fill="black"/>
<path opacity="0.25" d="M158.906 188.798C156.829 193.301 142.644 202.617 142.644 202.617C142.644 202.617 140.505 185.786 142.582 181.278C143.022 180.126 143.695 179.077 144.557 178.195C145.42 177.314 146.454 176.619 147.596 176.154C148.738 175.689 149.963 175.463 151.196 175.491C152.429 175.518 153.643 175.799 154.763 176.315C155.883 176.831 156.885 177.571 157.707 178.49C158.529 179.409 159.154 180.487 159.542 181.658C159.931 182.828 160.075 184.066 159.965 185.294C159.856 186.522 159.495 187.715 158.906 188.798Z" fill="black"/>
<path opacity="0.25" d="M187.66 219.162C186.365 223.958 173.981 235.531 173.981 235.531C173.981 235.531 169.033 219.303 170.316 214.507C170.556 213.297 171.042 212.15 171.743 211.135C172.444 210.121 173.346 209.262 174.393 208.61C175.44 207.959 176.61 207.529 177.829 207.349C179.049 207.168 180.293 207.239 181.484 207.558C182.675 207.878 183.788 208.438 184.753 209.205C185.719 209.972 186.516 210.929 187.097 212.017C187.678 213.105 188.029 214.3 188.128 215.529C188.228 216.758 188.074 217.995 187.677 219.162H187.66Z" fill="black"/>
</g>
<path d="M134.53 279C166.856 279 193.061 276.805 193.061 274.097C193.061 271.39 166.856 269.194 134.53 269.194C102.205 269.194 76 271.39 76 274.097C76 276.805 102.205 279 134.53 279Z" fill="#3F3D56"/>
<path d="M132.232 256.17C132.232 256.17 131.313 261.992 129.781 262.912C128.248 263.831 137.748 265.976 137.748 265.976L139.28 256.783L132.232 256.17Z" fill="#FBBEBE"/>
<path d="M143.57 189.672L146.941 193.656L145.409 207.445L144.183 234.719C144.183 234.719 146.635 258.315 144.183 258.928C141.732 259.541 130.7 259.234 131.006 257.702C131.313 256.17 131.619 254.944 132.232 252.799C132.845 250.654 131.619 242.993 131.619 242.993L133.151 234.412L127.635 197.333L143.57 189.672Z" fill="#2F2E41"/>
<path d="M132.539 261.993C132.539 261.993 129.168 261.38 128.861 261.993C128.555 262.606 122.732 269.041 121.813 269.041C120.894 269.041 114.152 275.17 121.2 275.477C128.248 275.783 139.893 270.267 139.893 270.267C139.893 270.267 138.18 262.469 138.27 262.844C138.361 263.219 132.539 263.525 132.539 261.993Z" fill="#2F2E41"/>
<path d="M128.861 247.896C128.861 247.896 137.441 257.396 137.748 258.315C138.054 259.235 142.651 258.315 142.651 258.315L144.49 252.186L142.957 250.041L134.377 242.993L128.861 247.896Z" fill="#FBBEBE"/>
<path d="M141.119 254.944L136.676 259.126C136.676 259.126 142.345 267.815 142.345 268.734C142.345 269.653 142.651 277.314 145.716 276.089C148.78 274.863 149.086 262.605 149.086 262.605C149.086 262.605 148.78 250.041 146.941 249.122C145.103 248.202 141.073 248.493 141.073 248.493C141.073 248.493 143.57 254.638 141.119 254.944Z" fill="#2F2E41"/>
<path d="M115.684 162.399C115.684 162.399 114.152 167.302 113.846 168.528C113.539 169.753 111.701 173.124 111.701 178.334C111.701 183.543 112.313 189.672 111.701 190.285C111.088 190.898 101.282 225.219 105.572 228.897C109.862 232.574 123.958 244.832 124.878 246.364C125.797 247.896 126.103 251.573 127.942 250.961C129.781 250.348 136.829 244.219 137.135 242.993C137.442 241.767 133.151 239.622 133.151 239.622C133.151 239.622 124.571 227.058 122.426 227.364C120.281 227.671 120.587 225.832 120.894 224.913C121.2 223.994 121.813 223.381 120.894 223.381C119.974 223.381 120.587 220.929 120.894 219.703C121.2 218.478 128.248 201.93 128.248 201.93L146.941 193.656C146.941 193.656 146.022 171.286 139.28 165.157L137.748 161.48C137.748 161.48 120.587 160.254 115.684 162.399Z" fill="#2F2E41"/>
<path d="M123.345 113.981C123.345 113.981 124.878 124.707 121.2 125.32C117.523 125.933 114.458 125.626 114.458 125.933C114.458 126.239 123.652 135.739 123.652 135.739L132.232 135.126L139.893 126.852C139.893 126.852 132.845 125.626 132.845 121.336C132.845 117.046 132.539 113.981 132.539 113.981H123.345Z" fill="#FBBEBE"/>
<path opacity="0.1" d="M123.345 113.981C123.345 113.981 124.878 124.707 121.2 125.32C117.523 125.933 114.458 125.626 114.458 125.933C114.458 126.239 123.652 135.739 123.652 135.739L132.232 135.126L139.893 126.852C139.893 126.852 132.845 125.626 132.845 121.336C132.845 117.046 132.539 113.981 132.539 113.981H123.345Z" fill="black"/>
<path d="M128.095 118.424C133.342 118.424 137.595 114.171 137.595 108.924C137.595 103.678 133.342 99.4248 128.095 99.4248C122.849 99.4248 118.595 103.678 118.595 108.924C118.595 114.171 122.849 118.424 128.095 118.424Z" fill="#FBBEBE"/>
<path d="M119.668 124.4C119.668 124.4 107.717 125.933 106.797 129.916C105.878 133.9 112.926 158.722 113.845 160.867C114.765 163.012 114.458 164.544 114.458 164.544C115.845 163.507 117.438 162.779 119.129 162.409C120.821 162.039 122.572 162.036 124.265 162.399C130.087 163.625 138.361 163.012 138.361 163.012C138.361 163.012 141.119 151.674 141.732 150.448C142.345 149.222 144.796 142.48 144.796 140.642C144.796 138.803 148.473 131.142 148.473 131.142C148.473 131.142 146.635 125.626 139.893 125.933C139.893 125.933 136.952 124.616 136.124 125.581C135.296 126.545 130.7 130.836 124.877 128.997C119.055 127.158 119.668 124.4 119.668 124.4Z" fill="#3F3D56"/>
<path d="M110.168 129.609H106.797L104.959 153.818C104.959 153.818 111.7 155.657 112.62 154.431C113.539 153.205 110.168 129.609 110.168 129.609Z" fill="#3F3D56"/>
<path d="M105.878 151.367L104.959 153.819C104.959 153.819 104.346 161.786 108.023 161.48C111.7 161.174 113.846 156.577 113.846 156.577C113.846 156.577 111.7 150.755 109.249 151.367C106.797 151.98 105.878 151.367 105.878 151.367Z" fill="#3F3D56"/>
<path d="M142.651 129.609L148.474 131.142C148.474 131.142 152.764 146.77 153.07 147.077C153.377 147.383 153.683 149.222 153.683 149.222C153.683 149.222 153.683 149.528 154.296 150.447C154.909 151.367 155.828 150.754 155.215 151.98C154.602 153.205 153.683 152.593 154.296 153.818C154.909 155.044 154.602 158.415 154.602 158.415C154.602 158.415 153.07 152.593 147.554 154.125L143.877 137.577L142.651 129.609Z" fill="#3F3D56"/>
<path d="M117.275 101.098C115.343 104.492 114.908 108.512 114.641 112.408C114.527 114.079 114.441 115.794 114.936 117.394C115.459 119.081 116.622 120.795 116.026 122.457C115.449 124.065 113.52 124.709 112.443 126.034C111.53 127.158 111.301 128.697 111.38 130.143C111.46 131.588 111.81 133.007 111.913 134.451C112.125 137.623 111.146 140.759 109.167 143.247C113.783 143.069 118.718 141.023 120.664 136.834C121.246 135.581 121.529 134.211 122.054 132.934C122.649 131.489 123.545 130.181 124.107 128.724C124.956 126.525 125.002 124.111 125.038 121.754C125.059 120.344 125.074 118.895 124.585 117.572C123.511 114.658 120.169 112.775 119.837 109.687C119.78 109.361 119.828 109.024 119.975 108.727C120.131 108.51 120.32 108.319 120.535 108.16C122.622 106.318 122.278 102.419 124.762 101.163C125.877 100.6 127.221 100.798 128.418 101.155C129.747 101.551 131.073 102.164 131.938 103.249C133.679 105.432 132.992 108.587 132.453 111.327C131.672 115.302 131.395 119.36 131.629 123.405C131.644 124.052 131.74 124.694 131.913 125.317C132.233 126.329 132.915 127.179 133.43 128.106C134.479 130.013 134.82 132.229 134.391 134.363C134.011 136.22 133.067 138.198 133.898 139.901C134.264 140.559 134.774 141.126 135.389 141.559C138.105 143.688 141.552 145.006 143.572 147.804C143.919 145.519 143.256 143.219 142.766 140.96C142.276 138.7 141.978 136.241 142.985 134.16C143.426 133.247 144.101 132.452 144.462 131.505C145.296 129.316 144.302 126.915 143.699 124.652C143.268 122.875 142.956 121.07 142.767 119.251L142.145 114.342C141.63 110.283 141.092 106.141 139.31 102.459C135.951 95.5184 128.35 92.9409 121.544 96.7865C119.761 97.8156 118.286 99.3044 117.275 101.098Z" fill="#FF6584"/>
<path d="M108.942 152.899C108.942 152.899 107.104 158.415 109.249 158.415C111.394 158.415 115.378 155.045 115.684 152.287C115.991 149.529 121.507 139.11 117.523 140.029C113.539 140.948 111.7 148.609 111.7 148.609L108.942 152.899Z" fill="#FBBEBE"/>
<path d="M139.893 129.609L129.781 162.399L143.57 165.463L153.683 133.593L139.893 129.609Z" fill="#ED0A80"/>
<path d="M152.764 153.205L154.678 156.404C154.678 156.404 155.522 162.398 151.231 162.398C146.941 162.398 140.812 156.576 140.812 156.576C140.812 156.576 137.748 155.35 135.909 155.657C134.071 155.963 123.958 155.657 128.248 150.447C132.539 145.238 139.893 150.447 139.893 150.447L147.554 154.124L151.538 151.979L152.764 153.205Z" fill="#FBBEBE"/>
<path d="M150.159 149.069L147.094 153.972C147.094 153.972 154.143 154.891 154.756 156.424C155.368 157.956 151.998 148.456 151.998 148.456L150.159 149.069Z" fill="#3F3D56"/>
<defs>
<filter id="filter0_d" x="0" y="0" width="269" height="382" filterUnits="userSpaceOnUse" color-interpolation-filters="sRGB">
<feFlood flood-opacity="0" result="BackgroundImageFix"/>
<feColorMatrix in="SourceAlpha" type="matrix" values="0 0 0 0 0 0 0 0 0 0 0 0 0 0 0 0 0 0 127 0"/>
<feOffset dy="4"/>
<feGaussianBlur stdDeviation="17"/>
<feColorMatrix type="matrix" values="0 0 0 0 1 0 0 0 0 1 0 0 0 0 1 0 0 0 0.2 0"/>
<feBlend mode="normal" in2="BackgroundImageFix" result="effect1_dropShadow"/>
<feBlend mode="normal" in="SourceGraphic" in2="effect1_dropShadow" result="shape"/>
</filter>
</defs>
</svg>
