<svg width="65" height="66" viewBox="0 0 65 66" fill="none" xmlns="http://www.w3.org/2000/svg">
<circle cx="32.5" cy="33.0957" r="31" stroke="white" stroke-width="3"/>
<path d="M41.7569 25.9529C42.2863 25.9529 42.8038 25.7958 43.244 25.5015C43.6842 25.2072 44.0273 24.7888 44.2299 24.2994C44.4325 23.8099 44.4855 23.2713 44.3822 22.7517C44.2789 22.2321 44.024 21.7549 43.6496 21.3802C43.2753 21.0056 42.7983 20.7505 42.2791 20.6472C41.7599 20.5438 41.2217 20.5969 40.7326 20.7996C40.2435 21.0023 39.8254 21.3457 39.5313 21.7862C39.2372 22.2266 39.0802 22.7445 39.0802 23.2743C39.0802 23.9847 39.3622 24.666 39.8642 25.1684C40.3662 25.6707 41.047 25.9529 41.7569 25.9529ZM41.7569 21.4886C42.1099 21.4886 42.4549 21.5933 42.7483 21.7895C43.0418 21.9857 43.2705 22.2646 43.4056 22.5909C43.5406 22.9172 43.576 23.2763 43.5071 23.6227C43.4382 23.9691 43.2683 24.2873 43.0187 24.537C42.7692 24.7868 42.4512 24.9568 42.105 25.0257C41.7589 25.0946 41.4001 25.0593 41.074 24.9241C40.748 24.789 40.4693 24.5601 40.2732 24.2664C40.0771 23.9727 39.9724 23.6275 39.9724 23.2743C39.9724 22.8007 40.1604 22.3465 40.4951 22.0116C40.8298 21.6767 41.2836 21.4886 41.7569 21.4886Z" fill="white"/>
<path d="M23.02 25.9529C23.5494 25.9529 24.0669 25.7958 24.5071 25.5015C24.9473 25.2072 25.2903 24.7888 25.4929 24.2994C25.6955 23.8099 25.7485 23.2713 25.6453 22.7517C25.542 22.2321 25.287 21.7549 24.9127 21.3802C24.5384 21.0056 24.0614 20.7505 23.5422 20.6472C23.0229 20.5438 22.4847 20.5969 21.9956 20.7996C21.5065 21.0023 21.0885 21.3457 20.7944 21.7862C20.5002 22.2266 20.3433 22.7445 20.3433 23.2743C20.3433 23.9847 20.6253 24.666 21.1273 25.1684C21.6292 25.6707 22.3101 25.9529 23.02 25.9529ZM23.02 21.4886C23.3729 21.4886 23.7179 21.5933 24.0114 21.7895C24.3048 21.9857 24.5336 22.2646 24.6686 22.5909C24.8037 22.9172 24.839 23.2763 24.7702 23.6227C24.7013 23.9691 24.5314 24.2873 24.2818 24.537C24.0322 24.7868 23.7143 24.9568 23.3681 25.0257C23.022 25.0946 22.6632 25.0593 22.3371 24.9241C22.011 24.789 21.7323 24.5601 21.5362 24.2664C21.3402 23.9727 21.2355 23.6275 21.2355 23.2743C21.2355 22.8007 21.4235 22.3465 21.7582 22.0116C22.0928 21.6767 22.5467 21.4886 23.02 21.4886Z" fill="white"/>
<path d="M32.3885 25.9529C32.9179 25.9529 33.4354 25.7958 33.8756 25.5015C34.3158 25.2072 34.6589 24.7888 34.8615 24.2994C35.0641 23.8099 35.1171 23.2713 35.0138 22.7517C34.9105 22.2321 34.6556 21.7549 34.2812 21.3802C33.9069 21.0056 33.4299 20.7505 32.9107 20.6472C32.3915 20.5438 31.8533 20.5969 31.3642 20.7996C30.8751 21.0023 30.457 21.3457 30.1629 21.7862C29.8688 22.2266 29.7118 22.7445 29.7118 23.2743C29.7118 23.9847 29.9938 24.666 30.4958 25.1684C30.9978 25.6707 31.6786 25.9529 32.3885 25.9529ZM32.3885 21.4886C32.7414 21.4886 33.0865 21.5933 33.3799 21.7895C33.6734 21.9857 33.9021 22.2646 34.0371 22.5909C34.1722 22.9172 34.2076 23.2763 34.1387 23.6227C34.0698 23.9691 33.8999 24.2873 33.6503 24.537C33.4008 24.7868 33.0828 24.9568 32.7366 25.0257C32.3905 25.0946 32.0317 25.0593 31.7056 24.9241C31.3795 24.789 31.1008 24.5601 30.9048 24.2664C30.7087 23.9727 30.604 23.6275 30.604 23.2743C30.604 22.8007 30.792 22.3465 31.1267 22.0116C31.4613 21.6767 31.9152 21.4886 32.3885 21.4886Z" fill="white"/>
<path d="M20.7897 43.3633C20.6713 43.3633 20.5577 43.4103 20.474 43.494C20.3903 43.5778 20.3433 43.6913 20.3433 43.8097V45.149C20.3433 45.2674 20.3903 45.3809 20.474 45.4647C20.5577 45.5484 20.6713 45.5954 20.7897 45.5954C20.9081 45.5954 21.0216 45.5484 21.1054 45.4647C21.1891 45.3809 21.2361 45.2674 21.2361 45.149V43.8097C21.2361 43.6913 21.1891 43.5778 21.1054 43.494C21.0216 43.4103 20.9081 43.3633 20.7897 43.3633Z" fill="white"/>
<path d="M25.251 43.3633C25.1326 43.3633 25.019 43.4103 24.9353 43.494C24.8516 43.5778 24.8046 43.6913 24.8046 43.8097V45.149C24.8046 45.2674 24.8516 45.3809 24.9353 45.4647C25.019 45.5484 25.1326 45.5954 25.251 45.5954C25.3694 45.5954 25.4829 45.5484 25.5667 45.4647C25.6504 45.3809 25.6974 45.2674 25.6974 45.149V43.8097C25.6974 43.6913 25.6504 43.5778 25.5667 43.494C25.4829 43.4103 25.3694 43.3633 25.251 43.3633Z" fill="white"/>
<path d="M39.5266 43.3633C39.4082 43.3633 39.2947 43.4103 39.211 43.494C39.1272 43.5778 39.0802 43.6913 39.0802 43.8097V45.149C39.0802 45.2674 39.1272 45.3809 39.211 45.4647C39.2947 45.5484 39.4082 45.5954 39.5266 45.5954C39.645 45.5954 39.7586 45.5484 39.8423 45.4647C39.926 45.3809 39.9731 45.2674 39.9731 45.149V43.8097C39.9731 43.6913 39.926 43.5778 39.8423 43.494C39.7586 43.4103 39.645 43.3633 39.5266 43.3633Z" fill="white"/>
<path d="M43.9876 43.3633C43.8693 43.3633 43.7558 43.4103 43.6722 43.494C43.5885 43.5778 43.5415 43.6913 43.5415 43.8097V45.149C43.5415 45.2675 43.5885 45.381 43.6722 45.4647C43.7558 45.5485 43.8693 45.5955 43.9876 45.5955C44.1059 45.5955 44.2194 45.5485 44.3031 45.4647C44.3867 45.381 44.4337 45.2675 44.4337 45.149V43.8097C44.4337 43.6913 44.3867 43.5778 44.3031 43.494C44.2194 43.4103 44.1059 43.3633 43.9876 43.3633Z" fill="white"/>
<path d="M30.1582 43.3633C30.0398 43.3633 29.9263 43.4103 29.8425 43.494C29.7588 43.5778 29.7118 43.6913 29.7118 43.8097V45.149C29.7118 45.2674 29.7588 45.3809 29.8425 45.4647C29.9263 45.5484 30.0398 45.5954 30.1582 45.5954C30.2766 45.5954 30.3902 45.5484 30.4739 45.4647C30.5576 45.3809 30.6046 45.2674 30.6046 45.149V43.8097C30.6046 43.6913 30.5576 43.5778 30.4739 43.494C30.3902 43.4103 30.2766 43.3633 30.1582 43.3633Z" fill="white"/>
<path d="M34.6194 43.3633C34.501 43.3633 34.3875 43.4103 34.3037 43.494C34.22 43.5778 34.173 43.6913 34.173 43.8097V45.149C34.173 45.2674 34.22 45.3809 34.3037 45.4647C34.3875 45.5484 34.501 45.5954 34.6194 45.5954C34.7378 45.5954 34.8514 45.5484 34.9351 45.4647C35.0188 45.3809 35.0658 45.2674 35.0658 45.149V43.8097C35.0658 43.6913 35.0188 43.5778 34.9351 43.494C34.8514 43.4103 34.7378 43.3633 34.6194 43.3633Z" fill="white"/>
<path d="M34.0592 38.4531H30.7133C28.9935 38.4531 27.4812 39.9821 27.4812 41.7254V45.1495C27.4812 45.2679 27.5282 45.3814 27.6119 45.4652C27.6955 45.5489 27.809 45.5959 27.9273 45.5959C28.0456 45.5959 28.1591 45.5489 28.2428 45.4652C28.3264 45.3814 28.3734 45.2679 28.3734 45.1495V41.7254C28.3734 40.4799 29.4887 39.346 30.7178 39.346H34.0637C35.2883 39.346 36.4036 40.4799 36.4036 41.7254V45.1495C36.4036 45.2679 36.4506 45.3814 36.5342 45.4652C36.6179 45.5489 36.7314 45.5959 36.8497 45.5959C36.968 45.5959 37.0815 45.5489 37.1652 45.4652C37.2488 45.3814 37.2958 45.2679 37.2958 45.1495V41.7254C37.2958 39.9821 35.7835 38.4531 34.0592 38.4531Z" fill="white"/>
<path d="M29.9349 31.4333C29.8859 30.7739 29.7416 30.125 29.5066 29.507C29.4493 29.3514 29.3466 29.2166 29.2117 29.1203C29.0768 29.024 28.9161 28.9705 28.7504 28.9668H26.6581C26.4925 28.9705 26.3317 29.024 26.1969 29.1203C26.062 29.2166 25.9592 29.3514 25.902 29.507C25.6669 30.125 25.5227 30.7739 25.4737 31.4333C25.4469 32.036 25.7971 33.19 27.2582 33.5807V34.5472H27.0351C26.9168 34.5472 26.8033 34.5942 26.7196 34.6779C26.636 34.7617 26.589 34.8752 26.589 34.9936C26.589 35.112 26.636 35.2256 26.7196 35.3093C26.8033 35.393 26.9168 35.44 27.0351 35.44H28.3735C28.4918 35.44 28.6052 35.393 28.6889 35.3093C28.7726 35.2256 28.8196 35.112 28.8196 34.9936C28.8196 34.8752 28.7726 34.7617 28.6889 34.6779C28.6052 34.5942 28.4918 34.5472 28.3735 34.5472H28.1504V33.5807C29.6114 33.19 29.9616 32.0338 29.9349 31.4333ZM26.3659 31.4668V31.4423C26.4076 30.9 26.5286 30.3668 26.725 29.8597H28.6835C28.8799 30.3668 29.0009 30.9 29.0426 31.4423V31.4668C29.0426 31.5092 29.0828 32.5048 27.7244 32.7615H27.682C26.3659 32.5137 26.3659 31.5695 26.3659 31.4668Z" fill="white"/>
<path d="M23.02 32.2031C22.4906 32.2031 21.9731 32.3602 21.5329 32.6546C21.0927 32.9489 20.7496 33.3672 20.547 33.8567C20.3444 34.3461 20.2914 34.8847 20.3947 35.4043C20.498 35.9239 20.7529 36.4012 21.1273 36.7758C21.5016 37.1504 21.9785 37.4055 22.4978 37.5089C23.017 37.6122 23.5552 37.5592 24.0443 37.3564C24.5334 37.1537 24.9515 36.8104 25.2456 36.3699C25.5397 35.9294 25.6967 35.4115 25.6967 34.8817C25.6967 34.1713 25.4147 33.49 24.9127 32.9877C24.4107 32.4853 23.7299 32.2031 23.02 32.2031ZM23.02 36.6675C22.667 36.6675 22.322 36.5627 22.0286 36.3665C21.7351 36.1703 21.5064 35.8914 21.3713 35.5651C21.2363 35.2388 21.2009 34.8797 21.2698 34.5333C21.3386 34.1869 21.5086 33.8688 21.7582 33.619C22.0077 33.3693 22.3257 33.1992 22.6718 33.1303C23.018 33.0614 23.3768 33.0968 23.7029 33.2319C24.0289 33.3671 24.3076 33.596 24.5037 33.8896C24.6998 34.1833 24.8045 34.5285 24.8045 34.8817C24.8045 35.3553 24.6164 35.8095 24.2818 36.1444C23.9471 36.4793 23.4933 36.6675 23.02 36.6675Z" fill="white"/>
<path d="M32.3885 37.5603C32.9179 37.5603 33.4354 37.4032 33.8756 37.1089C34.3158 36.8146 34.6589 36.3962 34.8615 35.9068C35.0641 35.4173 35.1171 34.8788 35.0138 34.3592C34.9105 33.8396 34.6556 33.3623 34.2812 32.9877C33.9069 32.6131 33.4299 32.3579 32.9107 32.2546C32.3915 32.1512 31.8533 32.2043 31.3642 32.407C30.8751 32.6098 30.457 32.9531 30.1629 33.3936C29.8688 33.8341 29.7118 34.352 29.7118 34.8817C29.7118 35.5921 29.9938 36.2735 30.4958 36.7758C30.9978 37.2781 31.6786 37.5603 32.3885 37.5603ZM32.3885 33.096C32.7414 33.096 33.0865 33.2007 33.3799 33.3969C33.6734 33.5932 33.9021 33.8721 34.0372 34.1984C34.1722 34.5247 34.2076 34.8837 34.1387 35.2301C34.0698 35.5765 33.8999 35.8947 33.6503 36.1444C33.4008 36.3942 33.0828 36.5642 32.7366 36.6332C32.3905 36.7021 32.0317 36.6667 31.7056 36.5315C31.3796 36.3964 31.1009 36.1675 30.9048 35.8738C30.7087 35.5802 30.604 35.2349 30.604 34.8817C30.604 34.4081 30.792 33.9539 31.1267 33.619C31.4613 33.2841 31.9152 33.096 32.3885 33.096Z" fill="white"/>
<path d="M41.7569 37.5603C42.2863 37.5603 42.8038 37.4032 43.244 37.1089C43.6842 36.8146 44.0273 36.3962 44.2299 35.9068C44.4325 35.4173 44.4855 34.8788 44.3822 34.3592C44.2789 33.8396 44.024 33.3623 43.6496 32.9877C43.2753 32.6131 42.7983 32.3579 42.2791 32.2546C41.7599 32.1512 41.2217 32.2043 40.7326 32.407C40.2435 32.6098 39.8254 32.9531 39.5313 33.3936C39.2372 33.8341 39.0802 34.352 39.0802 34.8817C39.0802 35.5921 39.3622 36.2735 39.8642 36.7758C40.3662 37.2781 41.047 37.5603 41.7569 37.5603ZM41.7569 33.096C42.1099 33.096 42.4549 33.2007 42.7483 33.3969C43.0418 33.5932 43.2705 33.8721 43.4056 34.1984C43.5406 34.5247 43.576 34.8837 43.5071 35.2301C43.4382 35.5765 43.2683 35.8947 43.0187 36.1444C42.7692 36.3942 42.4512 36.5642 42.105 36.6332C41.7589 36.7021 41.4001 36.6667 41.074 36.5315C40.748 36.3964 40.4693 36.1675 40.2732 35.8738C40.0771 35.5802 39.9724 35.2349 39.9724 34.8817C39.9724 34.4081 40.1604 33.9539 40.4951 33.619C40.8298 33.2841 41.2836 33.096 41.7569 33.096Z" fill="white"/>
<path d="M19.0049 28.7786C19.0225 28.1671 19.2676 27.5843 19.6922 27.1442C20.1167 26.704 20.6902 26.4384 21.3002 26.3991C20.9558 26.2072 20.6453 25.9599 20.3812 25.667C19.7307 25.8916 19.1646 26.3103 18.759 26.8666C18.3534 27.4229 18.1279 28.0901 18.1127 28.7786V30.0821C18.3568 29.8324 18.6658 29.6562 19.0049 29.5732V28.7786Z" fill="white"/>
<path d="M24.7397 26.3989C25.1564 26.4231 25.5599 26.5541 25.9114 26.7792C26.2629 27.0044 26.5508 27.3162 26.7473 27.6846C26.8428 27.3432 26.9815 27.0154 27.1599 26.7092C26.7649 26.2316 26.2464 25.8718 25.661 25.6689C25.3961 25.9613 25.0848 26.2079 24.7397 26.3989Z" fill="white"/>
<path d="M44.3958 25.6689C44.1316 25.961 43.8211 26.2076 43.4768 26.3989C44.0868 26.4381 44.6603 26.7038 45.0848 27.1439C45.5094 27.584 45.7545 28.1668 45.7721 28.7783V29.5238C46.0922 29.5476 46.4001 29.6562 46.6643 29.8386V28.7783C46.6487 28.0902 46.4229 27.4235 46.0174 26.8676C45.6118 26.3118 45.0459 25.8935 44.3958 25.6689Z" fill="white"/>
<path d="M34.7373 25.9524H35.6302C35.4381 25.8372 35.2346 25.7422 35.023 25.6689C34.933 25.7685 34.8376 25.8632 34.7373 25.9524Z" fill="white"/>
<path d="M39.1182 25.6689C38.9067 25.7422 38.7034 25.8373 38.5115 25.9525H39.4037C39.3035 25.8632 39.2082 25.7685 39.1182 25.6689Z" fill="white"/>
<path d="M35.1031 37.114C35.1031 37.1341 35.1165 37.1519 35.1232 37.172C35.1232 37.172 35.1232 37.1921 35.1344 37.2033C35.1488 37.2489 35.1659 37.2936 35.1857 37.3372L35.2058 37.3729C35.2277 37.416 35.2523 37.4578 35.2794 37.4979L35.3039 37.5314C35.3314 37.5696 35.3612 37.6061 35.3931 37.6408L35.4288 37.6742C35.4598 37.7059 35.4926 37.7357 35.527 37.7635L35.5805 37.7992C35.6121 37.8225 35.6448 37.8441 35.6786 37.864C35.7032 37.8774 35.7299 37.8885 35.7567 37.8997C35.7835 37.9109 35.8169 37.9287 35.8482 37.9399C35.8794 37.951 35.9195 37.96 35.9575 37.9689L36.0311 37.989C36.0951 38.0005 36.1601 38.0064 36.2251 38.0068H38.3665C38.4263 38.0063 38.486 38.0011 38.545 37.9912H38.5918C38.6379 37.9821 38.6833 37.9702 38.7279 37.9555L38.7636 37.9443C38.8771 37.9018 38.9833 37.8415 39.0781 37.7658C39.17 37.6926 39.2504 37.6061 39.3167 37.5091C39.3976 37.389 39.4559 37.2551 39.4885 37.114H38.9777C38.8487 36.9554 38.7337 36.7859 38.6342 36.6073V36.8305C38.6354 36.8667 38.6294 36.9029 38.6165 36.9368C38.6037 36.9707 38.5843 37.0017 38.5594 37.0281C38.5345 37.0544 38.5046 37.0756 38.4715 37.0903C38.4384 37.1051 38.4027 37.1131 38.3665 37.114H36.2251C36.1889 37.1131 36.1532 37.1051 36.1201 37.0903C36.087 37.0756 36.0571 37.0544 36.0323 37.0281C36.0074 37.0017 35.988 36.9707 35.9751 36.9368C35.9623 36.9029 35.9563 36.8667 35.9575 36.8305V36.4287H38.545C38.4075 36.1455 38.3085 35.8453 38.2505 35.5359H35.9575V34.8818C35.9574 35.6944 35.6786 36.4823 35.1678 37.114H35.1031Z" fill="white"/>
<path d="M30.6687 26.3992C30.3242 26.2073 30.0137 25.9599 29.7497 25.667C29.2145 25.8549 28.7347 26.1734 28.3534 26.5935C27.9721 27.0136 27.7015 27.5222 27.5659 28.0733H28.4938C28.6484 27.6092 28.9381 27.2019 29.3256 26.9036C29.713 26.6053 30.1807 26.4296 30.6687 26.3992Z" fill="white"/>
<path d="M19.1343 38.0063H21.2957C20.8888 37.78 20.5297 37.4768 20.2384 37.1134H19.1231C19.1031 37.1134 19.0049 37.0197 19.0049 36.8455L19.2882 31.6112V31.5866C19.2882 31.4081 19.3841 31.3098 19.4176 31.3098H24.5814C24.5971 31.0092 24.6389 30.7104 24.7063 30.417H19.4176C18.8577 30.417 18.4026 30.9348 18.396 31.5732L18.1127 36.8121V36.8366C18.1127 37.4817 18.5699 38.0063 19.1343 38.0063Z" fill="white"/>
<path d="M45.6427 30.417H40.3517L40.7175 31.3098H45.6427C45.6739 31.3098 45.7676 31.4036 45.772 31.5777L45.4887 36.8121V36.8366C45.4887 37.0152 45.3928 37.1134 45.3594 37.1134H44.5407C44.2495 37.4768 43.8904 37.78 43.4834 38.0063H45.3616C45.9215 38.0063 46.3765 37.4884 46.3832 36.85L46.6643 31.6112V31.5866C46.6643 30.9415 46.207 30.417 45.6427 30.417Z" fill="white"/>
<path d="M36.0623 30.417C36.0623 30.5085 36.0378 30.6402 36.0221 30.7228C36.0221 30.7674 36.0065 30.8076 35.9998 30.8344L35.8036 31.3098L35.2392 32.6848C35.2392 32.696 35.2392 32.7116 35.2258 32.7228C35.7002 33.3422 35.9574 34.1008 35.9575 34.8813V34.3076H38.2394C38.2888 33.9995 38.3788 33.6992 38.507 33.4147H35.9686C35.985 33.2812 36.0172 33.15 36.0645 33.0241L36.7672 31.3098H37.8245L38.5271 33.0241C38.554 33.0967 38.5749 33.1713 38.5896 33.2473C38.7558 32.9269 38.9693 32.6334 39.223 32.3768L38.7881 31.3098L38.594 30.8366C38.594 30.8098 38.5806 30.7697 38.5717 30.7228C38.5561 30.629 38.5405 30.4996 38.5316 30.417C38.5316 30.3746 38.5316 30.3389 38.5316 30.3165V29.2228C38.6008 29.1126 38.6365 28.9846 38.6342 28.8545V27.9616C38.6342 27.784 38.5637 27.6137 38.4382 27.4881C38.3127 27.3625 38.1425 27.292 37.965 27.292H36.6266C36.4492 27.292 36.279 27.3625 36.1535 27.4881C36.028 27.6137 35.9575 27.784 35.9575 27.9616V28.8545C35.9578 28.9855 35.9966 29.1136 36.069 29.2228V30.321C36.069 30.3433 36.0645 30.3768 36.0623 30.417ZM36.9545 30.417C36.9545 30.379 36.9545 30.3456 36.9545 30.321V29.5241H37.6237V30.321C37.6237 30.3456 37.6237 30.379 37.6237 30.417H36.9545ZM36.8497 28.1848H37.7419V28.6313H36.8497V28.1848Z" fill="white"/>
<path d="M43.4278 38.4531H40.0819C39.6081 38.4621 39.1419 38.5746 38.7161 38.7828C38.2904 38.991 37.9152 39.2899 37.6171 39.6585C37.7955 39.9647 37.9342 40.2925 38.0297 40.6339C38.2295 40.2575 38.5247 39.9404 38.8857 39.7143C39.2467 39.4882 39.6607 39.3612 40.0863 39.346H43.4322C44.6568 39.346 45.7721 40.4799 45.7721 41.7254V45.1495C45.7721 45.2679 45.8191 45.3814 45.9028 45.4652C45.9864 45.5489 46.0999 45.5959 46.2182 45.5959C46.3365 45.5959 46.45 45.5489 46.5337 45.4652C46.6173 45.3814 46.6643 45.2679 46.6643 45.1495V41.7254C46.6643 39.9821 45.152 38.4531 43.4278 38.4531Z" fill="white"/>
<path d="M24.6907 38.4531H21.3448C19.625 38.4531 18.1127 39.9821 18.1127 41.7254V45.1495C18.1127 45.2679 18.1597 45.3814 18.2433 45.4652C18.327 45.5489 18.4405 45.5959 18.5588 45.5959C18.6771 45.5959 18.7906 45.5489 18.8742 45.4652C18.9579 45.3814 19.0049 45.2679 19.0049 45.1495V41.7254C19.0049 40.4799 20.1202 39.346 21.3493 39.346H24.6952C25.1199 39.3622 25.533 39.4897 25.8931 39.7157C26.2532 39.9417 26.5478 40.2583 26.7473 40.6339C26.8428 40.2925 26.9815 39.9647 27.16 39.6585C26.8613 39.2893 26.4855 38.9901 26.0589 38.7819C25.6323 38.5736 25.1653 38.4614 24.6907 38.4531Z" fill="white"/>
<path d="M30.0977 37.6132C29.9183 37.4629 29.754 37.2954 29.607 37.1133H25.8016C25.5103 37.4766 25.1512 37.7799 24.7443 38.0061H28.8999C29.2761 37.813 29.6803 37.6805 30.0977 37.6132Z" fill="white"/>
</svg>
