<svg width="65" height="66" viewBox="0 0 65 66" fill="none" xmlns="http://www.w3.org/2000/svg">
<circle cx="32.5" cy="32.9727" r="31" stroke="white" stroke-width="3"/>
<path d="M24.9556 42.9454L24.8722 45.5876H25.4281L25.5115 42.8063C25.5104 42.7329 25.4804 42.663 25.4281 42.6116L20.731 37.7722C20.552 37.5851 20.4524 37.3359 20.4531 37.0769V31.2919C20.4531 31.0927 20.5321 30.9017 20.6729 30.7609C20.8136 30.62 21.0045 30.5409 21.2035 30.5409C21.4052 30.5408 21.599 30.619 21.7442 30.7591C21.8894 30.8992 21.9745 31.0902 21.9817 31.2919L22.0651 35.8253C22.0651 35.8855 22.0846 35.9441 22.1207 35.9922L23.955 38.3563C24.1326 38.5596 24.378 38.6913 24.6455 38.7269C24.913 38.7625 25.1843 38.6996 25.4088 38.5498C25.6333 38.4 25.7957 38.1736 25.8657 37.9129C25.9358 37.6521 25.9086 37.3747 25.7894 37.1325L24.9278 35.6028C24.8501 35.4381 24.8348 35.2508 24.8849 35.0757C24.9349 34.9006 25.0469 34.7496 25.1999 34.651C25.3529 34.5523 25.5365 34.5127 25.7165 34.5394C25.8965 34.5661 26.0607 34.6574 26.1785 34.7963L29.1524 38.7456C29.2815 38.904 29.3591 39.0981 29.3747 39.3019L29.6249 45.5597H30.1807L29.9306 39.3019C29.9167 38.9773 29.7999 38.6656 29.5971 38.4119L26.651 34.5181C26.4444 34.2777 26.1575 34.1206 25.8438 34.0761C25.53 34.0316 25.2108 34.1028 24.9456 34.2763C24.6804 34.4498 24.4873 34.7139 24.4022 35.0193C24.3171 35.3248 24.3459 35.6508 24.4831 35.9366L25.3447 37.4663C25.4146 37.5914 25.4336 37.7387 25.3976 37.8775C25.3617 38.0162 25.2735 38.1357 25.1517 38.2111C25.0298 38.2864 24.8835 38.3117 24.7434 38.2818C24.6033 38.2518 24.4802 38.1689 24.3997 38.0503L22.621 35.7419L22.5376 31.2919C22.534 31.1165 22.4959 30.9436 22.4255 30.783C22.3551 30.6225 22.2537 30.4773 22.1273 30.3559C22.0008 30.2345 21.8517 30.1393 21.6884 30.0756C21.5251 30.0119 21.3509 29.981 21.1757 29.9847C20.8341 29.9919 20.5089 30.1329 20.2699 30.3772C20.0309 30.6216 19.8971 30.9499 19.8972 31.2919V37.0769C19.8986 37.4826 20.0582 37.8718 20.3419 38.1616L24.9556 42.9454Z" fill="white" stroke="white"/>
<path d="M44.9112 37.0775V31.2925C44.9112 31.1209 44.8774 30.9509 44.8118 30.7923C44.7461 30.6337 44.6499 30.4896 44.5286 30.3682C44.4073 30.2468 44.2633 30.1505 44.1048 30.0849C43.9463 30.0192 43.7765 29.9854 43.6049 29.9854C43.2559 29.9853 42.9207 30.1221 42.6713 30.3665C42.4219 30.6109 42.2781 30.9433 42.2708 31.2925L42.1875 35.7425L40.4087 38.051C40.3459 38.1275 40.2639 38.1859 40.1711 38.2201C40.0783 38.2544 39.978 38.2632 39.8806 38.2457C39.795 38.2296 39.7144 38.1937 39.6452 38.1407C39.576 38.0877 39.5203 38.0193 39.4824 37.9408C39.4446 37.8623 39.4256 37.776 39.4272 37.6889C39.4288 37.6017 39.4508 37.5162 39.4915 37.4391L40.3531 35.9094C40.4903 35.6236 40.5191 35.2976 40.434 34.9922C40.3489 34.6868 40.1558 34.4227 39.8906 34.2491C39.6254 34.0756 39.3062 34.0045 38.9924 34.049C38.6787 34.0935 38.3918 34.2506 38.1852 34.491L35.2391 38.3847C35.038 38.6394 34.9214 38.9505 34.9056 39.2747L34.6277 45.5604H35.1836L35.4337 39.3026C35.4436 39.0891 35.5215 38.8844 35.656 38.7185L38.6021 34.8247C38.7199 34.6859 38.8841 34.5946 39.0641 34.5679C39.2442 34.5411 39.4278 34.5808 39.5807 34.6795C39.7337 34.7781 39.8457 34.929 39.8957 35.1042C39.9458 35.2793 39.9305 35.4666 39.8528 35.6313L38.9912 37.161C38.872 37.4032 38.8448 37.6806 38.9149 37.9413C38.9849 38.2021 39.1473 38.4285 39.3718 38.5783C39.5964 38.7281 39.8676 38.791 40.1351 38.7554C40.4026 38.7198 40.648 38.588 40.8256 38.3847L42.6877 36.0207C42.7238 35.9725 42.7433 35.914 42.7433 35.8538L42.8267 31.3204C42.8303 31.2181 42.854 31.1175 42.8964 31.0244C42.9389 30.9313 42.9993 30.8474 43.0741 30.7777C43.149 30.7079 43.2369 30.6537 43.3327 30.6179C43.4285 30.5822 43.5305 30.5657 43.6327 30.5694C43.8222 30.5763 44.002 30.6547 44.136 30.7889C44.2701 30.923 44.3484 31.103 44.3553 31.2925V37.0775C44.356 37.3366 44.2564 37.5858 44.0774 37.7729L39.3525 42.6401C39.3002 42.6914 39.2702 42.7614 39.2692 42.8347L39.3525 45.616H39.9084L39.825 42.9738L44.4665 38.1622C44.7503 37.8724 44.9098 37.4833 44.9112 37.0775Z" fill="white" stroke="white"/>
<path d="M32.2653 20.473C31.8125 20.4659 31.3665 20.5834 30.9759 20.8126C30.5853 21.0417 30.265 21.3738 30.05 21.7726C29.835 22.1713 29.7335 22.6215 29.7565 23.074C29.7796 23.5266 29.9263 23.9641 30.1808 24.3389C29.9645 24.5 29.7685 24.6868 29.5971 24.8952C29.4409 24.7085 29.2637 24.5406 29.0691 24.3945C29.2923 24.0412 29.4167 23.6343 29.4293 23.2165C29.4419 22.7986 29.3422 22.385 29.1406 22.0188C28.9391 21.6526 28.643 21.3473 28.2833 21.1346C27.9236 20.922 27.5135 20.8098 27.0957 20.8098C26.678 20.8098 26.2678 20.922 25.9082 21.1346C25.5485 21.3473 25.2524 21.6526 25.0508 22.0188C24.8493 22.385 24.7496 22.7986 24.7622 23.2165C24.7747 23.6343 24.8992 24.0412 25.1224 24.3945C24.7333 24.6852 24.4175 25.063 24.2003 25.4976C23.9832 25.9323 23.8706 26.4117 23.8717 26.8977V28.5664C23.8717 28.9352 24.0181 29.2889 24.2787 29.5497C24.5393 29.8105 24.8928 29.957 25.2614 29.957H28.8745C28.9319 30.2716 29.096 30.5568 29.339 30.7645C29.582 30.9722 29.8891 31.0898 30.2086 31.0974H34.322C34.6463 31.0962 34.9599 30.9815 35.2087 30.7733C35.4574 30.565 35.6255 30.2763 35.6838 29.957H39.297C39.6655 29.957 40.019 29.8105 40.2796 29.5497C40.5402 29.2889 40.6866 28.9352 40.6866 28.5664V26.8977C40.6877 26.4117 40.5752 25.9323 40.358 25.4976C40.1408 25.063 39.8251 24.6852 39.4359 24.3945C39.6592 24.0412 39.7836 23.6343 39.7962 23.2165C39.8088 22.7986 39.7091 22.385 39.5075 22.0188C39.3059 21.6526 39.0099 21.3473 38.6502 21.1346C38.2905 20.922 37.8804 20.8098 37.4626 20.8098C37.0448 20.8098 36.6347 20.922 36.275 21.1346C35.9154 21.3473 35.6193 21.6526 35.4177 22.0188C35.2161 22.385 35.1165 22.7986 35.129 23.2165C35.1416 23.6343 35.266 24.0412 35.4893 24.3945C35.2948 24.5407 35.1176 24.7087 34.9612 24.8952C34.7812 24.6851 34.5758 24.4982 34.3498 24.3389C34.6042 23.9641 34.751 23.5266 34.774 23.074C34.7971 22.6215 34.6956 22.1713 34.4806 21.7726C34.2655 21.3738 33.9453 21.0417 33.5546 20.8126C33.164 20.5834 32.718 20.4659 32.2653 20.473ZM32.2653 21.0292C32.6501 21.0292 33.0262 21.1434 33.3462 21.3573C33.6661 21.5712 33.9155 21.8753 34.0627 22.231C34.21 22.5868 34.2485 22.9782 34.1734 23.3559C34.0984 23.7336 33.9131 24.0805 33.641 24.3527C33.3689 24.625 33.0222 24.8104 32.6448 24.8856C32.2674 24.9607 31.8763 24.9221 31.5208 24.7748C31.1653 24.6274 30.8614 24.3779 30.6476 24.0577C30.4339 23.7375 30.3197 23.3611 30.3197 22.9761C30.3197 22.4597 30.5247 21.9645 30.8896 21.5994C31.2544 21.2343 31.7493 21.0292 32.2653 21.0292ZM27.0679 21.3351C27.4197 21.3351 27.7637 21.4395 28.0562 21.6351C28.3487 21.8307 28.5767 22.1087 28.7113 22.434C28.8459 22.7592 28.8812 23.1171 28.8125 23.4624C28.7439 23.8077 28.5745 24.1249 28.3257 24.3738C28.077 24.6227 27.76 24.7923 27.415 24.8609C27.0699 24.9296 26.7123 24.8944 26.3872 24.7597C26.0622 24.6249 25.7844 24.3968 25.5889 24.1041C25.3935 23.8113 25.2892 23.4672 25.2892 23.1151C25.2892 22.6431 25.4766 22.1903 25.8102 21.8565C26.1437 21.5227 26.5962 21.3351 27.0679 21.3351ZM28.8189 27.0089V29.4286H25.2336C25.0124 29.4286 24.8004 29.3407 24.644 29.1842C24.4876 29.0277 24.3998 28.8155 24.3998 28.5942V26.9255C24.3931 26.5141 24.4855 26.1072 24.6694 25.7393C24.8532 25.3713 25.123 25.0531 25.4559 24.8117C25.8916 25.2348 26.4748 25.4714 27.0818 25.4714C27.6889 25.4714 28.2721 25.2348 28.7077 24.8117C28.92 24.968 29.1074 25.1556 29.2636 25.368C28.9763 25.8674 28.8231 26.4327 28.8189 27.0089ZM37.4626 21.3351C37.8144 21.3351 38.1583 21.4395 38.4508 21.6351C38.7434 21.8307 38.9714 22.1087 39.106 22.434C39.2406 22.7592 39.2758 23.1171 39.2072 23.4624C39.1386 23.8077 38.9692 24.1249 38.7204 24.3738C38.4716 24.6227 38.1547 24.7923 37.8096 24.8609C37.4646 24.9296 37.1069 24.8944 36.7819 24.7597C36.4569 24.6249 36.1791 24.3968 35.9836 24.1041C35.7882 23.8113 35.6838 23.4672 35.6838 23.1151C35.6838 22.6431 35.8713 22.1903 36.2048 21.8565C36.5384 21.5227 36.9909 21.3351 37.4626 21.3351ZM35.8228 24.8117C36.2585 25.2348 36.8417 25.4714 37.4487 25.4714C38.0558 25.4714 38.639 25.2348 39.0746 24.8117C39.4036 25.0504 39.6711 25.3641 39.8547 25.7269C40.0384 26.0897 40.133 26.491 40.1308 26.8977V28.5664C40.1308 28.7877 40.0429 28.9999 39.8866 29.1564C39.7302 29.3129 39.5181 29.4008 39.297 29.4008H35.7116V27.0089C35.7159 26.4352 35.5723 25.87 35.2947 25.368C35.4425 25.1576 35.6204 24.9701 35.8228 24.8117ZM35.128 27.0089V29.7067C35.128 29.928 35.0401 30.1402 34.8838 30.2967C34.7274 30.4532 34.5153 30.5411 34.2942 30.5411H30.2086C29.9874 30.5411 29.7754 30.4532 29.619 30.2967C29.4626 30.1402 29.3748 29.928 29.3748 29.7067V27.0089C29.3736 26.5701 29.4763 26.1372 29.6743 25.7456C29.8724 25.3541 30.1602 25.015 30.5143 24.7561C30.9772 25.213 31.6012 25.4691 32.2514 25.4691C32.9016 25.4691 33.5256 25.213 33.9885 24.7561C34.3493 25.0104 34.6438 25.3478 34.8469 25.7399C35.0501 26.132 35.156 26.5672 35.1558 27.0089H35.128Z" fill="white" stroke="white"/>
</svg>
